<?xml version="1.0" encoding="UTF-8"?>
<svg id="svg5" width="100mm" height="100mm" version="1.1" viewBox="0 0 100 100" xmlns="http://www.w3.org/2000/svg">
<g id="layer1">
<text id="text4579" x="62.701752" y="45.047333" font-family="Arial" font-size="4.303px" letter-spacing="0px" stroke-width="5.0048" text-align="center" text-anchor="middle" word-spacing="0px" style="line-height:1.25" xml:space="preserve"><tspan id="tspan4577" x="62.701752" y="45.047333" stroke-width="5.0048"/></text>
<path id="path3038" d="m34 34 32 32" fill="none" stroke="#000" stroke-linecap="round" stroke-width="8"/>
<path id="path3040" d="m66 34-32 32" fill="none" stroke="#000" stroke-linecap="round" stroke-width="8"/>
<circle id="path2520" cx="50" cy="50" r="36" fill="none" stroke="#000" stroke-linecap="round" stroke-linejoin="round" stroke-miterlimit="2" stroke-width="8" style="paint-order:stroke markers fill"/>
</g>
</svg>
