<?xml version="1.0" encoding="UTF-8"?>
<svg id="svg5" width="100mm" height="100mm" version="1.1" viewBox="0 0 100 100" xmlns="http://www.w3.org/2000/svg">
<g id="layer1">
<circle id="path14904" cx="80" cy="80" r="10" stroke-width="0"/>
<path id="path14348-3" d="m24.444 10.833c-0.65507-0.65507-1.5089-0.82863-2.0454-0.83278-0.53644-0.0042-0.90679 0.09535-1.254 0.20164-0.69442 0.21258-1.3106 0.51235-2.0647 0.90736-1.5082 0.79003-3.4827 1.9808-6.1153 3.5604l-2.1434 1.2844c-2.2531 3.0359 0.64105 4.4605 2.5729 4.2882l2.142-1.2858c0.8422-0.50532 1.17-0.6743 1.8755-1.0938-0.41958 0.70563-0.58698 1.0345-1.0924 1.8769-1.5796 2.6326-2.769 4.6058-3.559 6.114-0.39501 0.75412-0.69616 1.3717-0.90874 2.0661-0.10629 0.34721-0.20441 0.71618-0.20025 1.2526 0.0042 0.53644 0.17771 1.3903 0.83278 2.0454 0.65507 0.65507 1.5075 0.82724 2.044 0.8314 0.53644 0.0042 0.90541-0.09397 1.2526-0.20026 0.69442-0.21258 1.312-0.51373 2.0661-0.90874 1.5082-0.79003 3.4813-1.9794 6.114-3.559 0.84219-0.50532 1.17-0.6743 1.8755-1.0938-0.41958 0.70563-0.58698 1.0345-1.0924 1.8769-1.5796 2.6326-2.769 4.6058-3.559 6.114-0.39501 0.75412-0.69616 1.3717-0.90874 2.0661-0.10629 0.34721-0.20441 0.71618-0.20025 1.2526 0.0042 0.53644 0.17771 1.3903 0.83278 2.0454 0.65507 0.65507 1.5075 0.82724 2.044 0.8314 0.53644 0.0042 0.90541-0.09397 1.2526-0.20026 0.69442-0.21258 1.312-0.51373 2.0661-0.90874 1.5082-0.79003 3.4813-1.9794 6.114-3.559 0.8422-0.50532 1.17-0.6743 1.8755-1.0938-0.41958 0.70563-0.58699 1.0345-1.0924 1.8769-1.0981 1.8302-2.0829 3.1424-2.8422 4.1681-0.37965 0.51282-0.70366 0.94172-1.0013 1.4349-0.29761 0.49321-0.84564 1.0736-0.56762 2.5094 0.13901 0.71788 0.68748 1.461 1.2015 1.8092 0.51404 0.34823 0.93678 0.44729 1.2913 0.51514 0.70903 0.13569 1.2687 0.11668 1.9818 0.09253 1.4262-0.0483 3.3804-0.22234 6.2603-0.39084 1.8758-0.10974 2.1029 0.23072 3.356 1.8147 1.2531 1.584 2.887 4.3648 5.8902 7.368l1.7678 1.7678 3.5355-3.5355-1.7678-1.7678c-2.5474-2.5474-3.8735-4.8739-5.5035-6.9343s-4.2077-3.9006-7.5682-3.704c-1.7522 0.10252-2.5383 0.15434-3.6543 0.22926 0.61439-0.85967 1.1493-1.5417 1.9072-2.8049 1.5796-2.6326 2.7703-4.6071 3.5604-6.1154 0.39501-0.75412 0.69478-1.3703 0.90736-2.0647 0.10629-0.34721 0.20579-0.71756 0.20163-1.254-0.0042-0.53645-0.17633-1.3889-0.8314-2.044-0.65507-0.65507-1.5089-0.82862-2.0454-0.83278-0.53644-0.0042-0.90679 0.09535-1.254 0.20164-0.69442 0.21258-1.3106 0.51235-2.0647 0.90736-1.5082 0.79003-3.4827 1.9808-6.1153 3.5604-0.84239 0.50544-1.1712 0.67284-1.8769 1.0924 0.4195-0.7055 0.58848-1.0333 1.0938-1.8755 1.5796-2.6326 2.7704-4.6071 3.5604-6.1154 0.39501-0.75412 0.69478-1.3703 0.90736-2.0647 0.10629-0.34721 0.20579-0.71756 0.20164-1.254-0.0042-0.53645-0.17633-1.3889-0.8314-2.044-0.65507-0.65507-1.5089-0.82863-2.0454-0.83278-0.53644-0.0042-0.90679 0.09535-1.254 0.20164-0.69442 0.21258-1.3106 0.51235-2.0647 0.90736-1.5082 0.79003-3.4827 1.9808-6.1153 3.5604-0.84239 0.50544-1.1712 0.67284-1.8769 1.0924 0.4195-0.7055 0.58848-1.0333 1.0938-1.8755 1.5796-2.6326 2.7703-4.6071 3.5604-6.1154 0.39501-0.75412 0.69478-1.3703 0.90736-2.0647 0.10629-0.34721 0.20579-0.71756 0.20163-1.254-0.0042-0.53645-0.17633-1.3889-0.8314-2.044z" color="#000000" stroke-linecap="square" stroke-miterlimit="3.8" style="-inkscape-stroke:none"/>
<path id="path972" d="m54.159 43.908 4.9497 19.092-18.385-5.6569z" stroke="#000" stroke-linecap="round" stroke-linejoin="round" stroke-width="4"/>
</g>
</svg>
