<?xml version="1.0" encoding="UTF-8"?>
<svg id="svg5" width="100mm" height="100mm" version="1.1" viewBox="0 0 100 100" xmlns="http://www.w3.org/2000/svg">
<g id="layer1" fill="none" stroke="#000" stroke-linecap="round" stroke-width="5">
<path id="path970" d="m55.7 50h32"/>
<path id="path4275" d="m12.5 50h32"/>
<path id="path4277" d="m50.1 44.4v-32"/>
<path id="path4279" d="m50.1 87.6v-32"/>
<path id="path4342" d="m54.95 47.2 27.713-16"/>
<path id="path4344" d="m17.537 68.8 27.713-16"/>
<path id="path4346" d="m47.3 45.15-16-27.713"/>
<path id="path4348" d="m68.9 82.563-16-27.713"/>
<path id="path4350" d="m52.9 45.15 16-27.713"/>
<path id="path4352" d="m31.3 82.563 16-27.713"/>
<path id="path4354" d="m45.25 47.2-27.713-16"/>
<path id="path4356" d="m82.663 68.8-27.713-16"/>
</g>
</svg>
