<?xml version="1.0" encoding="UTF-8"?>
<svg id="svg5" width="100mm" height="100mm" version="1.1" viewBox="0 0 100 100" xmlns="http://www.w3.org/2000/svg">
<g id="layer1" stroke="#000" stroke-linecap="round">
<rect id="rect844" x="34.526" y="9.5946" width="3.5693e-7" height="0" ry="0" fill="none" stroke-width=".35626"/>
<rect id="rect844-3" x="22.482" y="19.786" width="1.503e-7" height="0" ry="0" fill="none" stroke-width=".15002"/>
<g id="text980" transform="matrix(3.9419 0 0 2.8394 -14.334 -737.86)" dominant-baseline="auto" stroke-linejoin="round" stroke-width="1.1956" style="font-feature-settings:normal;font-variant-alternates:normal;font-variant-caps:normal;font-variant-ligatures:normal;font-variant-numeric:normal;font-variant-position:normal;shape-padding:0;text-decoration-color:#000000;text-decoration-line:none;text-decoration-style:solid;text-indent:0;text-orientation:mixed;text-transform:none;white-space:normal" aria-label="#">
<path id="rect932" d="m6.7709 263.98v12.187h8.4443v-12.187zm3.3177 1.1471 1.6071 2.6181 2.4552-0.36332-1.2877 2.9436 1.0066 3.1518-2.4024-0.79856-1.833 2.3127-0.197-3.4404-2.1405-1.7225 2.2798-1.326z"/>
<path id="rect940" d="m17.426 263.98v12.187h8.4443v-12.187zm4.2126 2.1347a2.983 4.1664 0 0 1 2.5929 2.1917 2.983 4.1664 0 0 1-1.1992 5.6321 2.983 4.1664 0 0 1-4.0395-1.6488l-0.02933-0.0737a2.983 4.1664 0 0 1 1.2401-5.6154 2.983 4.1664 0 0 1 1.4346-0.48688z"/>
<path id="path967" d="m6.7709 278.77v12.187h8.4443v-12.187zm4.2126 2.1347a2.983 4.1664 0 0 1 2.5929 2.1917 2.983 4.1664 0 0 1-1.1992 5.6321 2.983 4.1664 0 0 1-4.0395-1.6488l-0.02933-0.0737a2.983 4.1664 0 0 1 1.2401-5.6154 2.983 4.1664 0 0 1 1.4346-0.48688z"/>
<path id="path969" d="m17.426 278.77v12.187h8.4443v-12.187zm3.3177 1.1471 1.6071 2.6181 2.4552-0.36332-1.2877 2.9436 1.0066 3.1518-2.4024-0.79856-1.833 2.3127-0.197-3.4404-2.1405-1.7225 2.2798-1.326z"/>
</g>
</g>
</svg>
