<?xml version="1.0" encoding="UTF-8"?>
<svg id="svg5" width="100mm" height="100mm" version="1.1" viewBox="0 0 100 100" xmlns="http://www.w3.org/2000/svg">
<g id="layer1" stroke="#000">
<rect id="rect844" x="34.526" y="9.5946" width="3.5693e-7" height="0" ry="0" fill="none" stroke-linecap="round" stroke-width=".35626"/>
<rect id="rect844-3" x="22.482" y="19.786" width="1.503e-7" height="0" ry="0" fill="none" stroke-linecap="round" stroke-width=".15002"/>
<g id="text858" transform="matrix(23.006 0 0 20.548 -6.6919 -2.8272)" dominant-baseline="auto" style="font-feature-settings:normal;font-variant-alternates:normal;font-variant-caps:normal;font-variant-ligatures:normal;font-variant-numeric:normal;font-variant-position:normal;shape-padding:0;text-decoration-color:#000000;text-decoration-line:none;text-decoration-style:solid;text-indent:0;text-orientation:mixed;text-transform:none;white-space:normal" aria-label="ℂ">
<g id="text1589" transform="matrix(1.622 0 0 2.2748 -.97956 -1.035)" stroke-linejoin="round" stroke-width=".047888" aria-label="🗲">
<path id="path1595" d="m1.1049 2.292q-0.015406 0-0.015406-0.015406 0-0.0077 0.00308-0.00924l0.5346-0.58236-0.54384-0.16023q-0.00924-0.00308-0.00924-0.013866 0-0.010784 0.00616-0.012325l1.2156-0.74258q0.00308-0.001541 0.0077-0.001541t0.00924 0.003081q0.00616 0.003081 0.00616 0.010784 0 0.006163-0.00462 0.010784l-0.53305 0.58082 0.54538 0.13712q0.010784 0.00308 0.010784 0.010784 0 0.010784-0.0077 0.015406l-1.2171 0.76569q-0.00308 0.00308-0.0077 0.00308z" stroke="#000" stroke-linejoin="round" stroke-width=".047888"/>
</g>
<path id="path1973" d="m2.5813 3.4226h1.5046" fill="none" stroke-linecap="round" stroke-width=".22997"/>
<path id="path1975" d="m2.5813 3.9093h1.5046" fill="none" stroke-linecap="round" stroke-width=".22997"/>
<path id="path1977" d="m2.5813 4.396h1.5046" fill="none" stroke-linecap="round" stroke-width=".22997"/>
</g>
</g>
</svg>
