<?xml version="1.0" encoding="UTF-8"?>
<svg id="svg5" width="100mm" height="100mm" version="1.1" viewBox="0 0 100 100" xmlns="http://www.w3.org/2000/svg">
<g id="layer1">
<rect id="rect844" x="34.526" y="9.5946" width="3.5693e-7" height="0" ry="0" fill="none" stroke="#000" stroke-linecap="round" stroke-width=".35626"/>
<rect id="rect844-3" x="22.482" y="19.786" width="1.503e-7" height="0" ry="0" fill="none" stroke="#000" stroke-linecap="round" stroke-width=".15002"/>
<g id="text980" transform="matrix(3.9419 0 0 2.8394 -14.334 -737.86)" dominant-baseline="auto" style="font-feature-settings:normal;font-variant-alternates:normal;font-variant-caps:normal;font-variant-ligatures:normal;font-variant-numeric:normal;font-variant-position:normal;shape-padding:0;text-decoration-color:#000000;text-decoration-line:none;text-decoration-style:solid;text-indent:0;text-orientation:mixed;text-transform:none;white-space:normal" aria-label="#">
<path id="path3114" d="m25.268 277.47s-1.1525 12.883-4.4738 12.883-4.4738-12.883-4.4738-12.883m0 0s-1.1525-12.883-4.4738-12.883-4.4738 12.883-4.4738 12.883" fill="none" stroke="#000" stroke-linecap="round" stroke-width="2.4089"/>
</g>
</g>
</svg>
