<?xml version="1.0" encoding="UTF-8"?>
<svg id="svg5" width="100mm" height="100mm" version="1.1" viewBox="0 0 100 100" xmlns="http://www.w3.org/2000/svg">
<g id="layer1" stroke="#000">
<path id="path823" d="m13.987 26.956s21.408-12.956 36.013-12.956 36.013 12.956 36.013 12.956" fill="none" stroke-linecap="round" stroke-width="7.9733"/>
<path id="path833" d="m13 29 32 36" fill="none" stroke-linecap="round" stroke-width="4.621"/>
<path id="path396" d="m87 29-32 36" fill="none" stroke-linecap="round" stroke-width="4.621"/>
<ellipse id="path450" cx="50" cy="51" rx="5" ry="5" stroke-linecap="square" stroke-linejoin="round" stroke-miterlimit=".9" stroke-width="8" style="paint-order:stroke markers fill"/>
<ellipse id="circle452" cx="50" cy="71" rx="7" ry="7" stroke-linecap="square" stroke-linejoin="round" stroke-miterlimit=".9" stroke-width="8" style="paint-order:stroke markers fill"/>
<path id="path454" d="m40 88 10-13" fill="none" stroke-linecap="round" stroke-width="4.621"/>
<path id="path456" d="m60 88-10-13" fill="none" stroke-linecap="round" stroke-width="4.621"/>
<path id="path477" d="m33 65h15" fill="none" stroke-linecap="round" stroke-width="4.621"/>
<path id="path479" d="m67 65h-15" fill="none" stroke-linecap="round" stroke-width="4.621"/>
</g>
</svg>
