<?xml version="1.0" encoding="UTF-8"?>
<svg id="svg5" width="100mm" height="100mm" version="1.1" viewBox="0 0 100 100" xmlns="http://www.w3.org/2000/svg">
<g id="layer1">
<circle id="path835" cx="17.883" cy="49.825" r="8" stroke-width="0"/>
<path id="path837" d="m22.302 38.999c8.3929-18.136 20.586-26.79 28.852-26.477 11.793 0.44603 29.613 27.921 37.005 77.477" fill="none" stroke="#000" stroke-dasharray="5.0727, 5.0727" stroke-linecap="round" stroke-miterlimit="1" stroke-width="5.0727" style="paint-order:stroke fill markers"/>
</g>
</svg>
