<?xml version="1.0" encoding="UTF-8"?>
<svg id="svg5" width="100mm" height="100mm" version="1.1" viewBox="0 0 100 100" xmlns="http://www.w3.org/2000/svg">
<g id="layer1">
<text id="text4579" x="62.701752" y="45.047333" font-family="Arial" font-size="4.303px" letter-spacing="0px" stroke-width="5.0048" text-align="center" text-anchor="middle" word-spacing="0px" style="line-height:1.25" xml:space="preserve"><tspan id="tspan4577" x="62.701752" y="45.047333" stroke-width="5.0048"/></text>
<text id="text4579-7" transform="rotate(-90)" x="-37.389992" y="71.343155" font-family="Arial" font-size="4.303px" letter-spacing="0px" stroke-width="5.0048" text-align="center" text-anchor="middle" word-spacing="0px" style="line-height:1.25" xml:space="preserve"><tspan id="tspan4577-5" x="-37.389992" y="71.343155" stroke-width="5.0048"/></text>
<path id="path4-3" d="m40.397 87.942v-3.9031" fill="none" stroke="#fff" stroke-linecap="round" stroke-width=".79375"/>
<path id="path10734" d="m37 32 13-20 13 20z" stroke="#000" stroke-linecap="round" stroke-linejoin="round" stroke-width="4"/>
<path id="path10736" d="m50 85.941v-60.79" fill="none" stroke="#000" stroke-linecap="round" stroke-width="8"/>
</g>
</svg>
