<?xml version="1.0" encoding="UTF-8"?>
<svg viewBox="0 0 5 3" xmlns="http://www.w3.org/2000/svg">
<path d="M0 0h5v3H0z"/>
<path d="M0 1h5v2H0z" fill="#D00"/>
<path d="M0 2h5v1H0z" fill="#FFCE00"/>
</svg>
